…
``` r
  # install.packages("remotes")
remotes::install_github("matutosi/ensumr")
```

## Example

You can use dummy data.

``` r
library(ensumr)
dummy_data
#> # A tibble: 50 × 4
#>    q1    q2_ord    q3_multi    q4_comment                                       
#>    <chr> <fct>     <chr>       <chr>                                            
#>  1 u     never     "A;B;C;D;E" The odor of spring makes young hearts jump.      
#>  2 j     often     "E"         The goose was brought straight from the old mark…
#>  3 m     rarely    "B;C;D"     A young child should not suffer fright.          
#>  4 n     often     "C;D"       Mark the spot with a sign painted red.           
#>  5 x     sometimes "A;D"       Plead with the lawyer to drop the lost cause.    
#>  6 d     never     "A;B;C;D;E" The fight will end in just six minutes.          
#>  7 c     rarely    "A;B;C;D;E" The three story house was built of stone.        
#>  8 y     rarely    ""          Time brings us many changes.                     
#>  9 b     rarely    "A;B;C;D;E" Whitings are small fish caught in nets.          
#> 10 b     rarely    "A;B;D;E"   The baby puts his right foot in his mouth.       
#> # ℹ 40 more rows
```

You can show the summary of enquate by `enq_summary()`.

``` r
enq_summary(dummy_data)
#> $q1
#> # A tibble: 21 × 2
#>    q1        n
#>    <chr> <int>
#>  1 b         6
#>  2 c         4
#>  3 m         4
#>  4 n         4
#>  5 u         4
#>  6 j         3
#>  7 r         3
#>  8 s         3
#>  9 a         2
#> 10 g         2
#> # ℹ 11 more rows
…
``` r
enq_summary(dummy_data, simplify = TRUE)
#> # A tibble: 32 × 3
#>    item  option     n
#>    <chr> <chr>  <int>
#>  1 q1    b          6
#>  2 q1    c          4
#>  3 q1    m          4
#>  4 q1    n          4
#>  5 q1    u          4
#>  6 q1    j          3
#>  7 q1    r          3
#>  8 q1    s          3
#>  9 q1    a          2
#> 10 q1    g          2
#> # ℹ 22 more rows
```

You can analyse a item by `enq_simple()`, which can be used for both
singular or multiple options. When the column name has “\_ord”, the
result will be arranged by options. Otherwise, the results will be
arranged by counted numbers. When multiple options will be separated by
deliminator (default is “;”).

``` r
enq_simple(dummy_data, "q1")
#> # A tibble: 21 × 2
#>    q1        n
#>    <chr> <int>
#>  1 b         6
#>  2 c         4
#>  3 m         4
#>  4 n         4
#>  5 u         4
#>  6 j         3
#>  7 r         3
#>  8 s         3
#>  9 a         2
#> 10 g         2
#> # ℹ 11 more rows
```
…
You can analyse two item (cross tabulation) by `enq_cross()`.

``` r
enq_cross(dummy_data, "q1", "q2_ord")
#> # A tibble: 21 × 7
#>    q1    q2_ord_always q2_ord_often q2_ord_sometimes q2_ord_rarely q2_ord_never
#>    <chr>         <int>        <int>            <int>         <int>        <int>
#>  1 b                 0            0                1             5            0
#>  2 c                 1            1                0             1            1
#>  3 m                 0            0                1             2            1
#>  4 n                 0            3                1             0            0
#>  5 u                 0            0                1             1            2
#>  6 j                 0            1                1             1            0
#>  7 r                 1            0                0             1            1
#>  8 s                 0            1                1             1            0
#>  9 a                 0            0                1             0            1
#> 10 g                 0            1                0             0            1
#> # ℹ 11 more rows
#> # ℹ 1 more variable: total <int>
```

``` r
enq_cross(dummy_data, "q1", "q3_multi")
#> # A tibble: 21 × 8
#>    q1    q3_multi_ q3_multi_A q3_multi_B q3_multi_C q3_multi_D q3_multi_E total
#>    <chr>     <int>      <int>      <int>      <int>      <int>      <int> <int>
#>  1 b             0          6          4          3          4          4    21
#>  2 u             0          4          2          3          4          2    15
#>  3 c             1          3          3          2          2          3    14
#>  4 m             0          3          3          2          2          2    12
#>  5 g             0          2          2          1          1          2     8
#>  6 n             1          2          1          2          1          1     8
#>  7 l             0          1          1          1          2          1     6
#>  8 s             1          1          1          1          1          1     6
#>  9 t             0          1          1          1          2          1     6
#> 10 a             1          1          1          1          1          0     5
#> # ℹ 11 more rows
```
…
