Count occurrences of values in a column — enq_simple • ensumr
…
delim
A string to be used for delimiter of values
in the column (default is ";").

    Value

    A dataframe with two columns:
"option" (the unique values after splitting) and "n"
(the number of occurrences of each unique value).

    Examples

enq_simple(dummy_data, "q1")
#> # A tibble: 21 × 2
#>    q1        n
#>    <chr> <int>
#>  1 b         6
#>  2 c         4
#>  3 m         4
#>  4 n         4
#>  5 u         4
#>  6 j         3
#>  7 r         3
#>  8 s         3
#>  9 a         2
#> 10 g         2
#> # ℹ 11 more rows
…
