Create a cross tabulation of counts for two character columns — enq_cross • ensumr
…
    Value

    A data frame with the cross tabulation of counts.
The first column contains the unique values from the col_1.
The remaining columns are named based on the col_2 column values
prefixed with "col_".
Each cell contains the count of the corresponding combination of
values from col_1 and col_2.
An optional total are added if arrange_total is TRUE.

    Examples

enq_cross(dummy_data, "q1", "q2_ord")
#> # A tibble: 21 × 7
#>    q1    q2_ord_always q2_ord_often q2_ord_sometimes q2_ord_rarely q2_ord_never
#>    <chr>         <int>        <int>            <int>         <int>        <int>
#>  1 b                 0            0                1             5            0
#>  2 c                 1            1                0             1            1
#>  3 m                 0            0                1             2            1
#>  4 n                 0            3                1             0            0
#>  5 u                 0            0                1             1            2
#>  6 j                 0            1                1             1            0
#>  7 r                 1            0                0             1            1
#>  8 s                 0            1                1             1            0
#>  9 a                 0            0                1             0            1
#> 10 g                 0            1                0             0            1
#> # ℹ 11 more rows
#> # ℹ 1 more variable: total <int>
enq_cross(dummy_data, "q1", "q3_multi")
#> # A tibble: 21 × 8
#>    q1    q3_multi_ q3_multi_A q3_multi_B q3_multi_C q3_multi_D q3_multi_E total
#>    <chr>     <int>      <int>      <int>      <int>      <int>      <int> <int>
#>  1 b             0          6          4          3          4          4    21
#>  2 u             0          4          2          3          4          2    15
#>  3 c             1          3          3          2          2          3    14
#>  4 m             0          3          3          2          2          2    12
#>  5 g             0          2          2          1          1          2     8
#>  6 n             1          2          1          2          1          1     8
#>  7 l             0          1          1          1          2          1     6
#>  8 s             1          1          1          1          1          1     6
#>  9 t             0          1          1          1          2          1     6
#> 10 a             1          1          1          1          1          0     5
#> # ℹ 11 more rows
…
