Create summaries for multiple character columns in a data frame — enq_summary • ensumr
…
simplify
A logical. If TRUE, bind elements of a list (default is FALSE).

    Value

    A list of dataframe.
Names of the list elements are the same as the column names.

    Examples

enq_summary(dummy_data)
#> $q1
#> # A tibble: 21 × 2
#>    q1        n
#>    <chr> <int>
#>  1 b         6
#>  2 c         4
#>  3 m         4
#>  4 n         4
#>  5 u         4
#>  6 j         3
#>  7 r         3
#>  8 s         3
#>  9 a         2
#> 10 g         2
#> # ℹ 11 more rows
…
#> 5 never        10
#> 
#> $q3_multi
#> # A tibble: 6 × 2
#>   q3_multi     n
#>   <chr>    <int>
#> 1 "A"         32
#> 2 "B"         24
#> 3 "D"         24
#> 4 "C"         23
#> 5 "E"         21
#> 6 ""           8
#> 
enq_summary(dummy_data, simplify = TRUE)
#> # A tibble: 32 × 3
#>    item  option     n
#>    <chr> <chr>  <int>
#>  1 q1    b          6
#>  2 q1    c          4
#>  3 q1    m          4
#>  4 q1    n          4
#>  5 q1    u          4
#>  6 q1    j          3
#>  7 q1    r          3
#>  8 q1    s          3
#>  9 q1    a          2
#> 10 q1    g          2
#> # ℹ 22 more rows
…
